{
	"code": 200,
	"errorCode": null,
	"errorMsg": "",
	"data": {
		"pagination": {
			"page": 5,
			"size": 10,
			"totalPage": 15,
			"total": 149
		},
		"result": [
			{
				"id": 1001,
				"name": "王aa",
				"sex": 1,
				"no": "20094444",
				"class": "计算机一班"
			},
			{
				"id": 1002,
				"name": "王ab",
				"sex": 0,
				"no": "20094445",
				"class": "计算机一班"
			},
			{
				"id": 1003,
				"name": "王bb",
				"sex": 0,
				"no": "20094445",
				"class": "计算机一班"
			},
			{
				"id": 1004,
				"name": "王bc",
				"sex": 0,
				"no": "20094445",
				"class": "计算机一班"
			},
			{
				"id": 1005,
				"name": "王cc",
				"sex": 0,
				"no": "20094445",
				"class": "计算机一班"
			},
			{
				"id": 1006,
				"name": "王cd",
				"sex": 0,
				"no": "20094445",
				"class": "计算机一班"
			},
			{
				"id": 1007,
				"name": "王e",
				"sex": 0,
				"no": "20094445",
				"class": "计算机一班"
			},
			{
				"id": 1008,
				"name": "王f",
				"sex": 0,
				"no": "20094445",
				"class": "计算机一班"
			},
			{
				"id": 1009,
				"name": "王g",
				"sex": 0,
				"no": "20094445",
				"class": "计算机一班"
			},
			{
				"id": 1010,
				"name": "王h",
				"sex": 0,
				"no": "20094445",
				"class": "计算机一班"
			}
		]
	}
}